[0: 	DS1600SPE-3     EA K369UX001CEAZ
[1: 	DS1600SPE-3     EA K369UX001MEAZ
[2: 	DS1600SPE-3     EA K369UX001KEAZ
[3: 	DS1600SPE-3     EA K369UX001JEAZ
Total power present (calculated) in the chassis: 6400
